<?xml version="1.0" encoding="UTF-8" standalone="no"?>
<svg
   width="100mm"
   height="100mm"
   viewBox="0 0 100 100"
   version="1.1"
   id="svg8"
   inkscape:version="1.1 (c4e8f9ed74, 2021-05-24)"
   sodipodi:docname="imaginaryinfinitysquare.svg"
   inkscape:export-filename="/home/fmw/imaginaryinfinitysquare.png"
   inkscape:export-xdpi="95.986053"
   inkscape:export-ydpi="95.986053"
   xmlns:inkscape="http://www.inkscape.org/namespaces/inkscape"
   xmlns:sodipodi="http://sodipodi.sourceforge.net/DTD/sodipodi-0.dtd"
   xmlns:xlink="http://www.w3.org/1999/xlink"
   xmlns="http://www.w3.org/2000/svg"
   xmlns:svg="http://www.w3.org/2000/svg"
   xmlns:rdf="http://www.w3.org/1999/02/22-rdf-syntax-ns#"
   xmlns:cc="http://creativecommons.org/ns#"
   xmlns:dc="http://purl.org/dc/elements/1.1/">
  <defs
     id="defs2">
    <linearGradient
       inkscape:collect="always"
       id="linearGradient899">
      <stop
         style="stop-color:#000000;stop-opacity:1;"
         offset="0"
         id="stop895" />
      <stop
         style="stop-color:#000000;stop-opacity:0;"
         offset="1"
         id="stop897" />
    </linearGradient>
    <filter
       inkscape:collect="always"
       style="color-interpolation-filters:sRGB"
       id="filter931"
       x="-4.8875879e-06"
       width="1.0000098"
       y="-2.7619843e-06"
       height="1.0000055">
      <feGaussianBlur
         inkscape:collect="always"
         stdDeviation="5.5915189e-05"
         id="feGaussianBlur933" />
    </filter>
    <linearGradient
       inkscape:collect="always"
       xlink:href="#linearGradient899"
       id="linearGradient901"
       x1="63.005135"
       y1="49.999996"
       x2="237.05132"
       y2="49.999996"
       gradientUnits="userSpaceOnUse" />
  </defs>
  <sodipodi:namedview
     id="base"
     pagecolor="#1e2129"
     bordercolor="#666666"
     borderopacity="1.0"
     inkscape:pageopacity="0"
     inkscape:pageshadow="2"
     inkscape:zoom="0.98994949"
     inkscape:cx="-91.418805"
     inkscape:cy="141.92643"
     inkscape:document-units="mm"
     inkscape:current-layer="layer1"
     inkscape:document-rotation="0"
     showgrid="false"
     inkscape:window-width="1920"
     inkscape:window-height="1051"
     inkscape:window-x="1920"
     inkscape:window-y="0"
     inkscape:window-maximized="1"
     inkscape:snap-bbox="true"
     inkscape:pagecheckerboard="0"
     width="100mm" />
  <metadata
     id="metadata5">
    <rdf:RDF>
      <cc:Work
         rdf:about="">
        <dc:format>image/svg+xml</dc:format>
        <dc:type
           rdf:resource="http://purl.org/dc/dcmitype/StillImage" />
      </cc:Work>
    </rdf:RDF>
  </metadata>
  <g
     inkscape:label="Layer 1"
     inkscape:groupmode="layer"
     id="layer1">
    <g
       aria-label="ii"
       transform="matrix(0.95537374,0,0,0.95537374,2.2314004,1.8369874)"
       id="text12"
       style="font-weight:bold;font-size:63.5px;line-height:1.25;font-family:Comfortaa;-inkscape-font-specification:'Comfortaa, Bold';opacity:0.98;fill:#ffffff;stroke:#000000;stroke-width:0;paint-order:stroke fill markers;filter:url(#filter931)">
      <path
         d="m 40.411468,74.796745 q -1.397,0 -2.3495,-0.889 -0.889,-0.9525 -0.889,-2.3495 v -28.2575 q 0,-1.4605 0.889,-2.3495 0.9525,-0.889 2.3495,-0.889 1.4605,0 2.3495,0.889 0.889,0.889 0.889,2.3495 v 28.2575 q 0,1.397 -0.889,2.3495 -0.889,0.889 -2.3495,0.889 z m 0,-40.386 q -1.7145,0 -2.9845,-1.2065 -1.2065,-1.27 -1.2065,-2.9845 0,-1.7145 1.2065,-2.921 1.27,-1.27 2.9845,-1.27 1.7145,0 2.921,1.27 1.27,1.2065 1.27,2.921 0,1.7145 -1.27,2.9845 -1.2065,1.2065 -2.921,1.2065 z"
         style="fill:#dc322f"
         id="path3375" />
      <path
         d="m 59.588349,74.796745 q -1.397,0 -2.3495,-0.889 -0.889,-0.9525 -0.889,-2.3495 v -28.2575 q 0,-1.4605 0.889,-2.3495 0.9525,-0.889 2.3495,-0.889 1.4605,0 2.3495,0.889 0.889,0.889 0.889,2.3495 v 28.2575 q 0,1.397 -0.889,2.3495 -0.889,0.889 -2.3495,0.889 z m 0,-40.386 q -1.7145,0 -2.9845,-1.2065 -1.2065,-1.27 -1.2065,-2.9845 0,-1.7145 1.2065,-2.921 1.27,-1.27 2.9845,-1.27 1.7145,0 2.921,1.27 1.27,1.2065 1.27,2.921 0,1.7145 -1.27,2.9845 -1.2065,1.2065 -2.921,1.2065 z"
         style="fill:#268bd2"
         id="path3377" />
    </g>
    <path
       style="fill:#ffffff;fill-opacity:1;stroke:#268bd2;stroke-width:3.71984;stroke-linecap:round;stroke-linejoin:miter;stroke-miterlimit:4;stroke-dasharray:none;stroke-opacity:1"
       d="M 92.564434,20.34853 70.475239,79.65147"
       id="path14-3" />
    <path
       style="fill:#ffffff;fill-opacity:1;stroke:#d9322f;stroke-width:3.71984;stroke-linecap:round;stroke-linejoin:miter;stroke-miterlimit:4;stroke-dasharray:none;stroke-opacity:1"
       d="M 29.52476,20.34853 7.4355662,79.65147"
       id="path14-3-6" />
  </g>
</svg>
